INDEX VERSION 1.131+C:\Users\srnegri\eclipse-workspace\Batch_Test_ProcessingPdf\.metadata\.plugins\org.eclipse.jdt.core
919834207.index
2753630551.index
3085916794.index
2222988226.index
2910838986.index
3258195466.index
3126451492.index
154975795.index
3184049644.index
2504076362.index
189765358.index
1470391083.index
1256511545.index
2799943526.index
1772149526.index
2914862672.index
1561906609.index
1838616151.index
1381902207.index
4202140799.index
1279919752.index
3767779027.index
845771735.index
3400050681.index
52877152.index
1818615056.index
3930325664.index
1841315335.index
718878993.index
1641446475.index
2604794961.index
723525906.index
1199400911.index
4032879061.index
836557795.index
1300896121.index
330462114.index
2653642336.index
3367059555.index
1831650929.index
1457541984.index
2809352409.index
3078791428.index
3676513355.index
2091897784.index
439612762.index
3352445195.index
3152518876.index
3526545900.index
739070843.index
851666374.index
3303932490.index
303214869.index
1669940040.index
767606570.index
